[{
		"featureType": "all",
		"elementType": "labels",
		"stylers": [{
				"visibility": "on"
			}
		]
	}, {
		"featureType": "all",
		"elementType": "labels.text.fill",
		"stylers": [{
				"saturation": 36
			}, {
				"color": "#000000"
			}, {
				"lightness": 40
			}
		]
	}, {
		"featureType": "all",
		"elementType": "labels.text.stroke",
		"stylers": [{
				"visibility": "on"
			}, {
				"color": "#000000"
			}, {
				"lightness": 16
			}
		]
	}, {
		"featureType": "all",
		"elementType": "labels.icon",
		"stylers": [{
				"visibility": "off"
			}
		]
	}, {
		"featureType": "administrative",
		"elementType": "geometry.fill",
		"stylers": [{
				"color": "#000000"
			}, {
				"lightness": 20
			}
		]
	}, {
		"featureType": "administrative",
		"elementType": "geometry.stroke",
		"stylers": [{
				"color": "#000000"
			}, {
				"lightness": 17
			}, {
				"weight": 1.2
			}
		]
	}, {
		"featureType": "administrative.locality",
		"elementType": "labels.text.fill",
		"stylers": [{
				"color": "#c4c4c4"
			}
		]
	}, {
		"featureType": "administrative.neighborhood",
		"elementType": "labels.text.fill",
		"stylers": [{
				"color": "#707070"
			}
		]
	}, {
		"featureType": "landscape",
		"elementType": "geometry",
		"stylers": [{
				"color": "#000000"
			}, {
				"lightness": 20
			}
		]
	}, {
		"featureType": "poi",
		"elementType": "geometry",
		"stylers": [{
				"color": "#000000"
			}, {
				"lightness": 21
			}, {
				"visibility": "on"
			}
		]
	}, {
		"featureType": "poi.business",
		"elementType": "geometry",
		"stylers": [{
				"visibility": "on"
			}
		]
	}, {
		"featureType": "road.highway",
		"elementType": "geometry.fill",
		"stylers": [{
				"color": "#424242"
			}, {
				"lightness": "0"
			}, {
				"visibility": "on"
			}
		]
	}, {
		"featureType": "road.highway",
		"elementType": "geometry.stroke",
		"stylers": [{
				"visibility": "off"
			}
		]
	}, {
		"featureType": "road.highway",
		"elementType": "labels.text.fill",
		"stylers": [{
				"visibility": "off"
			}
		]
	}, {
		"featureType": "road.highway",
		"elementType": "labels.text.stroke",
		"stylers": [{
				"visibility": "off"
			}, {
				"hue": "#ff000a"
			}
		]
	}, {
		"featureType": "road.arterial",
		"elementType": "geometry",
		"stylers": [{
				"color": "#000000"
			}, {
				"lightness": 18
			}
		]
	}, {
		"featureType": "road.arterial",
		"elementType": "geometry.fill",
		"stylers": [{
				"color": "#424242"
			}
		]
	}, {
		"featureType": "road.arterial",
		"elementType": "labels.text.fill",
		"stylers": [{
				"color": "#ffffff"
			}
		]
	}, {
		"featureType": "road.arterial",
		"elementType": "labels.text.stroke",
		"stylers": [{
				"color": "#212121"
			}
		]
	}, {
		"featureType": "road.local",
		"elementType": "geometry",
		"stylers": [{
				"color": "#000000"
			}, {
				"lightness": 16
			}
		]
	}, {
		"featureType": "road.local",
		"elementType": "labels.text.fill",
		"stylers": [{
				"color": "#999999"
			}
		]
	}, {
		"featureType": "road.local",
		"elementType": "labels.text.stroke",
		"stylers": [{
				"saturation": "-52"
			}
		]
	}, {
		"featureType": "transit",
		"elementType": "geometry",
		"stylers": [{
				"color": "#000000"
			}, {
				"lightness": 19
			}
		]
	}, {
		"featureType": "water",
		"elementType": "geometry",
		"stylers": [{
				"color": "#000000"
			}, {
				"lightness": 17
			}
		]
	}
]
